[
    {
        "key": "group_5798b40a50cba",
        "title": "[layout] Header",
        "fields": [
            {
                "key": "field_5798b40a5637d",
                "label": "Header Layout",
                "name": "flex_header",
                "type": "flexible_content",
                "instructions": "",
                "required": 0,
                "conditional_logic": 0,
                "wrapper": {
                    "width": "",
                    "class": "",
                    "id": ""
                },
                "button_label": "Add Page Header Layout",
                "min": "",
                "max": 1,
                "layouts": [
                    {
                        "key": "578e471d8efe9",
                        "name": "header",
                        "label": "Header",
                        "display": "block",
                        "sub_fields": [
                            {
                                "key": "field_5798b40a5858f",
                                "label": "Row Settings",
                                "name": "row_settings",
                                "type": "message",
                                "instructions": "",
                                "required": 0,
                                "conditional_logic": 0,
                                "wrapper": {
                                    "width": "",
                                    "class": "",
                                    "id": ""
                                },
                                "message": "",
                                "new_lines": "wpautop",
                                "esc_html": 0
                            },
                            {
                                "key": "field_5798b40a5859b",
                                "label": "Toggle Settings",
                                "name": "toggle_settings",
                                "type": "true_false",
                                "instructions": "",
                                "required": 0,
                                "conditional_logic": 0,
                                "wrapper": {
                                    "width": "",
                                    "class": "toggler",
                                    "id": ""
                                },
                                "message": "Toggle Row Settings",
                                "default_value": 1
                            },
                            {
                                "key": "field_5798b40a585b8",
                                "label": "Container",
                                "name": "select_container",
                                "type": "select",
                                "instructions": "",
                                "required": 0,
                                "conditional_logic": [
                                    [
                                        {
                                            "field": "field_5798b40a5859b",
                                            "operator": "==",
                                            "value": "1"
                                        }
                                    ]
                                ],
                                "wrapper": {
                                    "width": 20,
                                    "class": "",
                                    "id": ""
                                },
                                "choices": {
                                    "layout__container--basic": "Basic",
                                    "layout__container--fluid": "Fluid",
                                    "layout__container--none": "None"
                                },
                                "default_value": [],
                                "allow_null": 0,
                                "multiple": 0,
                                "ui": 0,
                                "ajax": 0,
                                "placeholder": "",
                                "disabled": 0,
                                "readonly": 0,
                                "return_format": "value"
                            },
                            {
                                "key": "field_5798b40a585e5",
                                "label": "ID",
                                "name": "text_id",
                                "type": "text",
                                "instructions": "",
                                "required": 0,
                                "conditional_logic": [
                                    [
                                        {
                                            "field": "field_5798b40a5859b",
                                            "operator": "==",
                                            "value": "1"
                                        }
                                    ]
                                ],
                                "wrapper": {
                                    "width": 20,
                                    "class": "",
                                    "id": ""
                                },
                                "default_value": "",
                                "placeholder": "lowercase-class",
                                "prepend": "",
                                "append": "",
                                "maxlength": "",
                                "readonly": 0,
                                "disabled": 0
                            },
                            {
                                "key": "field_5798b40a58604",
                                "label": "Class",
                                "name": "text_class",
                                "type": "text",
                                "instructions": "",
                                "required": 0,
                                "conditional_logic": [
                                    [
                                        {
                                            "field": "field_5798b40a5859b",
                                            "operator": "==",
                                            "value": "1"
                                        }
                                    ]
                                ],
                                "wrapper": {
                                    "width": 20,
                                    "class": "",
                                    "id": ""
                                },
                                "default_value": "",
                                "placeholder": "lowercase-class",
                                "prepend": "",
                                "append": "",
                                "maxlength": "",
                                "readonly": 0,
                                "disabled": 0
                            },
                            {
                                "key": "field_5798b40a58677",
                                "label": "Background Image",
                                "name": "image_background",
                                "type": "image",
                                "instructions": "",
                                "required": 0,
                                "conditional_logic": [
                                    [
                                        {
                                            "field": "field_5798b40a5859b",
                                            "operator": "==",
                                            "value": "1"
                                        }
                                    ]
                                ],
                                "wrapper": {
                                    "width": 20,
                                    "class": "",
                                    "id": ""
                                },
                                "return_format": "array",
                                "preview_size": "thumbnail",
                                "library": "all",
                                "min_width": "",
                                "min_height": "",
                                "min_size": "",
                                "max_width": "",
                                "max_height": "",
                                "max_size": "",
                                "mime_types": ""
                            },
                            {
                                "key": "field_5798b40a58536",
                                "label": "Row Header",
                                "name": "",
                                "type": "message",
                                "instructions": "",
                                "required": 0,
                                "conditional_logic": 0,
                                "wrapper": {
                                    "width": "",
                                    "class": "",
                                    "id": ""
                                },
                                "message": "",
                                "new_lines": "wpautop",
                                "esc_html": 0
                            },
                            {
                                "key": "field_5798b40a58546",
                                "label": "Toggle Header",
                                "name": "toggle_header",
                                "type": "true_false",
                                "instructions": "",
                                "required": 0,
                                "conditional_logic": 0,
                                "wrapper": {
                                    "width": "",
                                    "class": "toggler",
                                    "id": ""
                                },
                                "message": "Toggle Row Header",
                                "default_value": 0
                            },
                            {
                                "key": "field_5798b40a58565",
                                "label": "Pre-Title",
                                "name": "text_pretitle",
                                "type": "text",
                                "instructions": "",
                                "required": 0,
                                "conditional_logic": [
                                    [
                                        {
                                            "field": "field_5798b40a58546",
                                            "operator": "==",
                                            "value": "1"
                                        }
                                    ]
                                ],
                                "wrapper": {
                                    "width": 25,
                                    "class": "",
                                    "id": ""
                                },
                                "default_value": "",
                                "placeholder": "If necessary",
                                "prepend": "",
                                "append": "",
                                "maxlength": "",
                                "readonly": 0,
                                "disabled": 0
                            },
                            {
                                "key": "field_5798b40a58578",
                                "label": "Title",
                                "name": "text_title",
                                "type": "text",
                                "instructions": "",
                                "required": 0,
                                "conditional_logic": [
                                    [
                                        {
                                            "field": "field_5798b40a58546",
                                            "operator": "==",
                                            "value": "1"
                                        }
                                    ]
                                ],
                                "wrapper": {
                                    "width": 35,
                                    "class": "",
                                    "id": ""
                                },
                                "default_value": "",
                                "placeholder": "If necessary",
                                "prepend": "",
                                "append": "",
                                "maxlength": "",
                                "readonly": 0,
                                "disabled": 0
                            },
                            {
                                "key": "field_5798b40a58584",
                                "label": "Sub Title",
                                "name": "text_subtitle",
                                "type": "textarea",
                                "instructions": "",
                                "required": 0,
                                "conditional_logic": [
                                    [
                                        {
                                            "field": "field_5798b40a58546",
                                            "operator": "==",
                                            "value": "1"
                                        }
                                    ]
                                ],
                                "wrapper": {
                                    "width": 40,
                                    "class": "",
                                    "id": ""
                                },
                                "default_value": "",
                                "placeholder": "",
                                "maxlength": "",
                                "rows": 1,
                                "new_lines": "wpautop",
                                "readonly": 0,
                                "disabled": 0
                            }
                        ],
                        "min": "",
                        "max": ""
                    }
                ]
            }
        ],
        "location": [
            [
                {
                    "param": "post_type",
                    "operator": "==",
                    "value": "page"
                }
            ],
            [
                {
                    "param": "post_type",
                    "operator": "==",
                    "value": "post"
                }
            ]
        ],
        "menu_order": 0,
        "position": "acf_after_title",
        "style": "seamless",
        "label_placement": "top",
        "instruction_placement": "label",
        "hide_on_screen": "",
        "active": 1,
        "description": ""
    }
]